{
  "packages": [
    "packages/*"
  ],
  "version": "0.9.1",
  "useWorkspaces": true,
  "npmClient": "yarn",
  "command": {
    "publish": {
      "conventionalCommits": true,
      "registry": "http://registry.npmjs.org",
      "access": "public",
      "npmClient": "yarn",
      "allowBranch": [
        "master",
        "feature/*"
      ]
    }
  }
}
